Thesis Intro
…
Code

dta_clean

# A tibble: 106,305 × 22
   patient_id   appointment_id gender scheduled_day appointment_day   age
   <fct>        <fct>          <fct>  <date>        <date>          <dbl>
 1 39217.84439  5751990        F      2016-05-31    2016-06-03         44
 2 43741.75652  5760144        M      2016-06-01    2016-06-01         39
 3 93779.52927  5712759        F      2016-05-18    2016-05-18         33
 4 141724.16655 5637648        M      2016-04-29    2016-05-02         12
 5 537615.28476 5637728        F      2016-04-29    2016-05-06         14
 6 5628261      5680449        M      2016-05-10    2016-05-13         13
 7 11831856     5718578        M      2016-05-19    2016-05-19         16
 8 22638656     5580835        F      2016-04-14    2016-05-03         22
 9 22638656     5715081        F      2016-05-18    2016-06-08         23
10 52168938     5704816        F      2016-05-16    2016-05-16         28
# ℹ 106,295 more rows
# ℹ 16 more variables: neighbourhood <chr>, scholarship <fct>,
#   hipertension <fct>, diabetes <fct>, alcoholism <fct>, handcap <fct>,
#   sms_received <fct>, no_show <chr>, wday <ord>, is_friday <fct>,
#   neigh_appts <int>, gender_male <fct>, attended <fct>,
#   days_since_call <dbl>, appt_count <int>, appt_tally <dbl>

2) Correlation matrix with cleaned data

Code

# install.packages("ggcorrplot")

dta_clean_noid<-dta_clean  %>%   
  select(!patient_id & !appointment_id & !handcap & !gender_male & !wday) %>% 
  select(where(is.factor))

dta_clean_noid

# A tibble: 106,305 × 8
   gender scholarship hipertension diabetes alcoholism sms_received is_friday
   <fct>  <fct>       <fct>        <fct>    <fct>      <fct>        <fct>    
 1 F      0           0            0        0          0            1        
 2 M      0           0            1        0          0            0        
 3 F      0           0            0        0          0            0        
 4 M      0           0            0        0          0            0        
 5 F      0           0            0        0          1            1        
 6 M      0           0            0        0          0            1        
 7 M      0           0            0        0          0            0        
 8 F      0           0            0        0          1            0        
 9 F      0           0            0        0          1            0        
10 F      0           0            0        0          0            0        
# ℹ 106,295 more rows
# ℹ 1 more variable: attended <fct>
…
Lets try to find the best model… looks like higher penalty actually performs better!!

Code

lr_res %>% 
  collect_metrics() %>% 
  arrange(penalty) %>% 
  rowid_to_column()

# A tibble: 40 × 8
   rowid  penalty .metric .estimator  mean     n std_err .config              
   <int>    <dbl> <chr>   <chr>      <dbl> <int>   <dbl> <chr>                
 1     1 0.0001   roc_auc binary     0.652     1      NA Preprocessor1_Model01
 2     2 0.000119 roc_auc binary     0.652     1      NA Preprocessor1_Model02
 3     3 0.000143 roc_auc binary     0.652     1      NA Preprocessor1_Model03
 4     4 0.000170 roc_auc binary     0.652     1      NA Preprocessor1_Model04
 5     5 0.000203 roc_auc binary     0.652     1      NA Preprocessor1_Model05
 6     6 0.000242 roc_auc binary     0.652     1      NA Preprocessor1_Model06
 7     7 0.000289 roc_auc binary     0.652     1      NA Preprocessor1_Model07
 8     8 0.000346 roc_auc binary     0.652     1      NA Preprocessor1_Model08
 9     9 0.000412 roc_auc binary     0.652     1      NA Preprocessor1_Model09
10    10 0.000492 roc_auc binary     0.652     1      NA Preprocessor1_Model10
# ℹ 30 more rows
…
Code

lr_res %>% 
  collect_predictions(parameters = lr_best) 

# A tibble: 15,947 × 7
   id         .pred_0 .pred_1  .row penalty attended .config              
   <chr>        <dbl>   <dbl> <int>   <dbl> <fct>    <chr>                
 1 validation   0.206   0.794    14  0.0702 0        Preprocessor1_Model38
 2 validation   0.209   0.791    24  0.0702 0        Preprocessor1_Model38
 3 validation   0.208   0.792    26  0.0702 0        Preprocessor1_Model38
 4 validation   0.208   0.792    27  0.0702 0        Preprocessor1_Model38
 5 validation   0.205   0.795    31  0.0702 0        Preprocessor1_Model38
 6 validation   0.203   0.797    36  0.0702 0        Preprocessor1_Model38
 7 validation   0.205   0.795    39  0.0702 0        Preprocessor1_Model38
 8 validation   0.202   0.798    43  0.0702 0        Preprocessor1_Model38
 9 validation   0.203   0.797    44  0.0702 0        Preprocessor1_Model38
10 validation   0.203   0.797    53  0.0702 0        Preprocessor1_Model38
# ℹ 15,937 more rows
…
