Msc Thesis Pt2: Predicting NHCI Dropouts
…
LGAs seem to have most impact.

Get the coefficients from this final fit as per docs

Code

vi_fit %>% tidy() %>% arrange(desc(abs(estimate)))

# A tibble: 109 × 3
   term                       estimate  penalty
   <chr>                         <dbl>    <dbl>
 1 (Intercept)                  -1.28  0.000886
 2 State_Ogun                    0.306 0.000886
 3 LGA_Tarauni                  -0.234 0.000886
 4 HC_monthly_visitLoad         -0.194 0.000886
 5 has_phone_X1                 -0.186 0.000886
 6 LGA_Nasarawa                 -0.170 0.000886
 7 LGA_Ijebu.Ode                -0.137 0.000886
 8 event_year_X2022             -0.131 0.000886
 9 event_year_month_month_Dec    0.126 0.000886
10 LGA_Fagge                     0.123 0.000886
# ℹ 99 more rows
…
Appointment Count and Days Since Entry (Registration) seemed to have greatest impact.

Get the coefficients from this final fit as per docs

Code

vi_fit %>% tidy()

# A tibble: 62 × 3
   term                     estimate  penalty
   <chr>                       <dbl>    <dbl>
 1 (Intercept)              -1.22    0.000428
 2 appt_tally               -0.663   0.000428
 3 days_since_last           0.257   0.000428
 4 days_of_medication        0.0715  0.000428
 5 bp_diastole_mmhg          0.0197  0.000428
 6 bp_systole_mmhg           0.0575  0.000428
 7 sbp_baseline              0.0350  0.000428
 8 dbp_baseline              0.00501 0.000428
 9 sbp_change_from_baseline  0       0.000428
10 dbp_change_from_baseline  0       0.000428
# ℹ 52 more rows
…
Appointment Count and Days Since Entry (Registration) seemed STILL to have greatest impact.

Get the coefficients from this final fit as per docs

Code

vi_fit %>% tidy()

# A tibble: 25 × 3
   term                     estimate penalty
   <chr>                       <dbl>   <dbl>
 1 (Intercept)              -1.17     0.0001
 2 bp_systole_mmhg           0.0478   0.0001
 3 HC_monthly_visitLoad     -0.286    0.0001
 4 appt_tally               -0.922    0.0001
 5 days_since_entry          0.360    0.0001
 6 sbp_change_from_baseline -0.0371   0.0001
 7 sex_Male                  0.0327   0.0001
 8 sex_missing               0.00201  0.0001
 9 age_group_X30.44          0.00531  0.0001
10 age_group_X45.59          0.0126   0.0001
# ℹ 15 more rows
…
