Msc Thesis Pt1: Describing NHCI Dropouts
…
dupe_clash %>% 
  count(var, sort=T)

# A tibble: 24 × 2
   var                    n
   <chr>              <int>
 1 last_updated_on      516
 2 bp_diastole_mmhg     401
 3 bp_systole_mmhg      395
 4 med_losartan         152
 5 med_amlodipine       151
 6 event_status          89
 7 days_of_medication    76
 8 created_by            66
 9 stored_by             65
10 bmi_measurement       37
# ℹ 14 more rows
…
